<?xml version="1.0" encoding="UTF-8"?>
<testsuites>
  <testsuite name="Home_Test" file="C:\xampp\htdocs\ci-cms\application\tests\controllers\Home_Test.php" tests="2" assertions="2" failures="1" errors="0" time="0.024862">
    <testcase name="testExpectFooActualFoo" class="Home_Test" file="C:\xampp\htdocs\ci-cms\application\tests\controllers\Home_Test.php" line="10" assertions="1" time="0.009328"/>
    <testcase name="testExpectBarActualBaz" class="Home_Test" file="C:\xampp\htdocs\ci-cms\application\tests\controllers\Home_Test.php" line="16" assertions="1" time="0.015534">
      <failure type="PHPUnit_Framework_ExpectationFailedException">Home_Test::testExpectBarActualBaz
Failed asserting that two strings are equal.
--- Expected
+++ Actual
@@ @@
-'bar'
+'baz'

</failure>
    </testcase>
  </testsuite>
</testsuites>
